Crash Course in Linear Regression
…
Consider the following data set, which has observations on four variables

LVOL logarithms of weekly sales volume

PROMP promotion price

FEAT feature advertising

DISP display

foods <- as_tibble(read.table("foods.txt", header = TRUE))
foods

## # A tibble: 156 x 4
##     LVOL PROMP  FEAT  DISP
##    <dbl> <dbl> <dbl> <dbl>
##  1  14.5  3.52  39.9  21.4
##  2  14.2  3.7   25.8  34.6
##  3  14.3  3.42  23.3  27.4
##  4  14.3  3.55  25.5  25.7
##  5  14.2  3.64  39.2  30.2
##  6  14.0  3.78  13.1  41.7
##  7  14.0  3.86  17.1  37.6
##  8  14.0  3.60  24.5  35.1
##  9  14.1  3.72  15.5  34.2
## 10  14.2  3.52  24.8  29.2
## #  with 146 more rows
…
